Rebecca Barter - Across (dplyr 1.0.0): applying dplyr functions simultaneously across multiple columns
…
I often find that I want to use a dplyr function on multiple columns at once. For instance, perhaps I want to scale all of the numeric variables at once using a mutate function, or I want to provide the same summary for three of my variables.

While it’s been possible to do such tasks for a while using scoped verbs, it’s now even easier - and more consistent - using dplyr’s new across() function.

To demonstrate across(), I’m going to use Palmer’s Penguin dataset, which was originally collected and made available by Dr. Kristen Gorman and the Palmer Station, Antarctica LTER, but has recently been made popular in the R community by Allison Horst as an alternative to the over-used Iris dataset.

To start with, let’s load the penguins dataset (via the palmerpenguins package) and the tidyverse package. If you’re new to the tidyverse (primarily to dplyr and piping, %>%), I suggest taking a look at my post on the tidyverse before reading this post.

# remotes::install_github("allisonhorst/palmerpenguins")
library(palmerpenguins)
library(tidyverse)

penguins

# A tibble: 344 × 8
   species island    bill_length_mm bill_depth_mm flipper_…¹ body_…² sex    year
   <fct>   <fct>              <dbl>         <dbl>      <int>   <int> <fct> <int>
 1 Adelie  Torgersen           39.1          18.7        181    3750 male   2007
 2 Adelie  Torgersen           39.5          17.4        186    3800 fema…  2007
 3 Adelie  Torgersen           40.3          18          195    3250 fema…  2007
 4 Adelie  Torgersen           NA            NA           NA      NA <NA>   2007
 5 Adelie  Torgersen           36.7          19.3        193    3450 fema…  2007
 6 Adelie  Torgersen           39.3          20.6        190    3650 male   2007
 7 Adelie  Torgersen           38.9          17.8        181    3625 fema…  2007
 8 Adelie  Torgersen           39.2          19.6        195    4675 male   2007
 9 Adelie  Torgersen           34.1          18.1        193    3475 <NA>   2007
10 Adelie  Torgersen           42            20.2        190    4250 <NA>   2007
# … with 334 more rows, and abbreviated variable names ¹​flipper_length_mm,
#   ²​body_mass_g
…
What if we want to replace the missing values in the numeric columns with 0 (clearly a terrible choice)? Without the across() function, we would apply an if_else() function separately to each numeric column, which will replace all NA values with 0 and leave all non-NA values as they are:

replace0 <- function(x) {
  if_else(condition = is.na(x), 
          true = 0, 
          false = as.numeric(x))
}
penguins %>%
  mutate(bill_length_mm = replace0(bill_length_mm),
         bill_depth_mm = replace0(bill_depth_mm),
         flipper_length_mm = replace0(flipper_length_mm),
         body_mass_g = replace0(body_mass_g))

# A tibble: 344 × 8
   species island    bill_length_mm bill_depth_mm flipper_…¹ body_…² sex    year
   <fct>   <fct>              <dbl>         <dbl>      <dbl>   <dbl> <fct> <int>
 1 Adelie  Torgersen           39.1          18.7        181    3750 male   2007
 2 Adelie  Torgersen           39.5          17.4        186    3800 fema…  2007
 3 Adelie  Torgersen           40.3          18          195    3250 fema…  2007
 4 Adelie  Torgersen            0             0            0       0 <NA>   2007
 5 Adelie  Torgersen           36.7          19.3        193    3450 fema…  2007
 6 Adelie  Torgersen           39.3          20.6        190    3650 male   2007
 7 Adelie  Torgersen           38.9          17.8        181    3625 fema…  2007
 8 Adelie  Torgersen           39.2          19.6        195    4675 male   2007
 9 Adelie  Torgersen           34.1          18.1        193    3475 <NA>   2007
10 Adelie  Torgersen           42            20.2        190    4250 <NA>   2007
# … with 334 more rows, and abbreviated variable names ¹​flipper_length_mm,
#   ²​body_mass_g

But fortunately, we can do this a lot more efficiently with across().

# define a function to replace NA with 0

penguins %>%
  mutate(across(where(is.numeric), replace0))

# A tibble: 344 × 8
   species island    bill_length_mm bill_depth_mm flipper_…¹ body_…² sex    year
   <fct>   <fct>              <dbl>         <dbl>      <dbl>   <dbl> <fct> <dbl>
 1 Adelie  Torgersen           39.1          18.7        181    3750 male   2007
 2 Adelie  Torgersen           39.5          17.4        186    3800 fema…  2007
 3 Adelie  Torgersen           40.3          18          195    3250 fema…  2007
 4 Adelie  Torgersen            0             0            0       0 <NA>   2007
 5 Adelie  Torgersen           36.7          19.3        193    3450 fema…  2007
 6 Adelie  Torgersen           39.3          20.6        190    3650 male   2007
 7 Adelie  Torgersen           38.9          17.8        181    3625 fema…  2007
 8 Adelie  Torgersen           39.2          19.6        195    4675 male   2007
 9 Adelie  Torgersen           34.1          18.1        193    3475 <NA>   2007
10 Adelie  Torgersen           42            20.2        190    4250 <NA>   2007
# … with 334 more rows, and abbreviated variable names ¹​flipper_length_mm,
#   ²​body_mass_g

Although obviously 0 isn’t a great choice, so perhaps we can replace the missing values with the mean value of the column. This time, rather than define a new function (in place of replace0), we’ll be a bit more concise and use the tilde-dot notation to specify the function we want to apply.

penguins %>%
  mutate(across(where(is.numeric), ~if_else(is.na(.), mean(., na.rm = T), as.numeric(.))))

# A tibble: 344 × 8
   species island    bill_length_mm bill_depth_mm flipper_…¹ body_…² sex    year
   <fct>   <fct>              <dbl>         <dbl>      <dbl>   <dbl> <fct> <dbl>
 1 Adelie  Torgersen           39.1          18.7       181    3750  male   2007
 2 Adelie  Torgersen           39.5          17.4       186    3800  fema…  2007
 3 Adelie  Torgersen           40.3          18         195    3250  fema…  2007
 4 Adelie  Torgersen           43.9          17.2       201.   4202. <NA>   2007
 5 Adelie  Torgersen           36.7          19.3       193    3450  fema…  2007
 6 Adelie  Torgersen           39.3          20.6       190    3650  male   2007
 7 Adelie  Torgersen           38.9          17.8       181    3625  fema…  2007
 8 Adelie  Torgersen           39.2          19.6       195    4675  male   2007
 9 Adelie  Torgersen           34.1          18.1       193    3475  <NA>   2007
10 Adelie  Torgersen           42            20.2       190    4250  <NA>   2007
# … with 334 more rows, and abbreviated variable names ¹​flipper_length_mm,
#   ²​body_mass_g

Or better yet, perhaps we can replace the missing values with the average value within the relevant species and island.

penguins %>%
  group_by(species, island) %>%
  mutate(across(where(is.numeric), 
                ~if_else(condition = is.na(.), 
                         true = mean(., na.rm = T), 
                         false = as.numeric(.)))) %>%
  ungroup()

# A tibble: 344 × 8
   species island    bill_length_mm bill_depth_mm flipper_…¹ body_…² sex    year
   <fct>   <fct>              <dbl>         <dbl>      <dbl>   <dbl> <fct> <dbl>
 1 Adelie  Torgersen           39.1          18.7       181    3750  male   2007
 2 Adelie  Torgersen           39.5          17.4       186    3800  fema…  2007
 3 Adelie  Torgersen           40.3          18         195    3250  fema…  2007
 4 Adelie  Torgersen           39.0          18.4       191.   3706. <NA>   2007
 5 Adelie  Torgersen           36.7          19.3       193    3450  fema…  2007
 6 Adelie  Torgersen           39.3          20.6       190    3650  male   2007
 7 Adelie  Torgersen           38.9          17.8       181    3625  fema…  2007
 8 Adelie  Torgersen           39.2          19.6       195    4675  male   2007
 9 Adelie  Torgersen           34.1          18.1       193    3475  <NA>   2007
10 Adelie  Torgersen           42            20.2       190    4250  <NA>   2007
# … with 334 more rows, and abbreviated variable names ¹​flipper_length_mm,
#   ²​body_mass_g

A select example

When you’re using select, you don’t have to include the across() function, because the select helpers have always worked with select(). This means that you can just write

penguins %>%
  select(where(is.numeric))

# A tibble: 344 × 5
   bill_length_mm bill_depth_mm flipper_length_mm body_mass_g  year
            <dbl>         <dbl>             <int>       <int> <int>
 1           39.1          18.7               181        3750  2007
 2           39.5          17.4               186        3800  2007
 3           40.3          18                 195        3250  2007
 4           NA            NA                  NA          NA  2007
 5           36.7          19.3               193        3450  2007
 6           39.3          20.6               190        3650  2007
 7           38.9          17.8               181        3625  2007
 8           39.2          19.6               195        4675  2007
 9           34.1          18.1               193        3475  2007
10           42            20.2               190        4250  2007
# … with 334 more rows
…
