Learn to purrr – Rebecca Barter
…
# A tibble: 5 × 2
# Groups:   continent [5]
  continent data              
  <chr>     <list>            
1 Asia      <tibble [396 × 5]>
2 Europe    <tibble [360 × 5]>
3 Africa    <tibble [624 × 5]>
4 Americas  <tibble [300 × 5]>
5 Oceania   <tibble [24 × 5]> 

The first column is the variable that we grouped by, continent, and the second column is the rest of the data frame corresponding to that group (as if you had filtered the data frame to the specific continent). To see this, the code below shows that the first entry in the data column corresponds to the entire gapminder dataset for Asia.

gapminder_nested$data[[1]]

# A tibble: 396 × 5
   country      year lifeExp      pop gdpPercap
   <chr>       <int>   <dbl>    <int>     <dbl>
 1 Afghanistan  1952    28.8  8425333      779.
 2 Afghanistan  1957    30.3  9240934      821.
 3 Afghanistan  1962    32.0 10267083      853.
 4 Afghanistan  1967    34.0 11537966      836.
 5 Afghanistan  1972    36.1 13079460      740.
 6 Afghanistan  1977    38.4 14880372      786.
 7 Afghanistan  1982    39.9 12881816      978.
 8 Afghanistan  1987    40.8 13867957      852.
 9 Afghanistan  1992    41.7 16317921      649.
10 Afghanistan  1997    41.8 22227415      635.
# ℹ 386 more rows

Using dplyr pluck() function, this can be written as

gapminder_nested %>% 
  # extract the first entry from the data column
  pluck("data", 1)

# A tibble: 396 × 5
   country      year lifeExp      pop gdpPercap
   <chr>       <int>   <dbl>    <int>     <dbl>
 1 Afghanistan  1952    28.8  8425333      779.
 2 Afghanistan  1957    30.3  9240934      821.
 3 Afghanistan  1962    32.0 10267083      853.
 4 Afghanistan  1967    34.0 11537966      836.
 5 Afghanistan  1972    36.1 13079460      740.
 6 Afghanistan  1977    38.4 14880372      786.
 7 Afghanistan  1982    39.9 12881816      978.
 8 Afghanistan  1987    40.8 13867957      852.
 9 Afghanistan  1992    41.7 16317921      649.
10 Afghanistan  1997    41.8 22227415      635.
# ℹ 386 more rows

Similarly, the 5th entry in the data column corresponds to the entire gapminder dataset for Oceania.

gapminder_nested %>% pluck("data", 5)

# A tibble: 24 × 5
   country    year lifeExp      pop gdpPercap
   <chr>     <int>   <dbl>    <int>     <dbl>
 1 Australia  1952    69.1  8691212    10040.
 2 Australia  1957    70.3  9712569    10950.
 3 Australia  1962    70.9 10794968    12217.
 4 Australia  1967    71.1 11872264    14526.
 5 Australia  1972    71.9 13177000    16789.
 6 Australia  1977    73.5 14074100    18334.
 7 Australia  1982    74.7 15184200    19477.
 8 Australia  1987    76.3 16257249    21889.
 9 Australia  1992    77.6 17481977    23425.
10 Australia  1997    78.8 18565243    26998.
# ℹ 14 more rows
…
Let’s return to the nested gapminder dataset. I want to calculate the average life expectancy within each continent and add it as a new column using mutate(). Based on the example above, can you explain why the following code doesn’t work?

gapminder_nested %>% 
  mutate(avg_lifeExp = mean(data$lifeExp))

I was hoping that this code would extract the lifeExp column from each data frame. But I’m applying the mutate to the data column, which itself doesn’t have an entry called lifeExp since it’s a list of data frames. How could I get access to the lifeExp column of the data frames stored in the data list? Using a map function of course!

Think of an individual data frame as .x. Again, I will first figure out the code for calculating the mean life expectancy for the first entry of the column. The following code defines .x to be the first entry of the data column (this is the data frame for Asia).

# the first entry of the "data" column
.x <- gapminder_nested %>% pluck("data", 1)
.x

# A tibble: 396 × 5
   country      year lifeExp      pop gdpPercap
   <chr>       <int>   <dbl>    <int>     <dbl>
 1 Afghanistan  1952    28.8  8425333      779.
 2 Afghanistan  1957    30.3  9240934      821.
 3 Afghanistan  1962    32.0 10267083      853.
 4 Afghanistan  1967    34.0 11537966      836.
 5 Afghanistan  1972    36.1 13079460      740.
 6 Afghanistan  1977    38.4 14880372      786.
 7 Afghanistan  1982    39.9 12881816      978.
 8 Afghanistan  1987    40.8 13867957      852.
 9 Afghanistan  1992    41.7 16317921      649.
10 Afghanistan  1997    41.8 22227415      635.
# ℹ 386 more rows
…
