5 useful R tips from rstudio::conf(2020) - tidy eval, piping, conflicts, bar charts and colors – Rebecca Barter
…
Attaching package: 'MASS'

The following object is masked from 'package:dplyr':

    select

diamonds %>% select(cut)

Error in select(., cut): unused argument (cut)

This is because by loading MASS, I have overwritten dplyr’s select() function (hence the warning). The normal workaround is to be explicit about what select() function you want using dplyr::select() as in

diamonds %>% dplyr::select(cut)

# A tibble: 53,940 × 1
   cut      
   <ord>    
 1 Ideal    
 2 Premium  
 3 Good     
 4 Premium  
 5 Good     
 6 Very Good
 7 Very Good
 8 Very Good
 9 Fair     
10 Very Good
# … with 53,930 more rows
But this can be really annoying if you have a lot of select()s in your code (because you have to go through and apply dplyr:: to each one). It turns out (as tweeted by Birunda Chelliah - I’m not where she learned it though) that a better workaround is to set conflict hierarchies at the top of your document (conflict_prefer("select", "dplyr")) to specify that the select() function should always come from the dplyr package.

# install.packages("conflicted")
library(conflicted)
# set conflict preference
conflict_prefer("select", "dplyr")

[conflicted] Will prefer dplyr::select over any other package.

Now when I use select() it works just fine!

# no more error!
diamonds %>% select(cut)

# A tibble: 53,940 × 1
   cut      
   <ord>    
 1 Ideal    
 2 Premium  
 3 Good     
 4 Premium  
 5 Good     
 6 Very Good
 7 Very Good
 8 Very Good
 9 Fair     
10 Very Good
# … with 53,930 more rows
…
